{
    "app": {
        "title": "Quest",
        "host": "127.0.0.1",
        "port": 3000,
        "jsonSpaces": 4
    },
    "mongodb": {
        "app": "mongodb://127.0.0.1/quest",
        "sessions": "mongodb://127.0.0.1/quest_sessions"
    },
    "cookie": {
        "sessionDomain": ".quest",
        "sessionCookieName": "local.quest.sid",
        "secret": "TYEqbEIMW9Y2ydqBoglKaAdk9NmlGrtMfbS6KrA7mOg="
    }
}